R and SQL (Part 2)
…
Kremlin Collectables, Co. 

NA

NA

Raanan Stores, Inc

(Top)

employees %>%  
  select(employeeNumber,managerLastName = lastName, managerFirstName = firstName) %>% 
  inner_join(select(employees, reportsTo, lastName, firstName), by = c('employeeNumber' = 'reportsTo'))

## # A tibble: 22 x 5
##    employeeNumber managerLastName managerFirstName lastName  firstName
##             <dbl> <chr>           <chr>            <chr>     <chr>    
##  1           1002 Murphy          Diane            Patterson Mary     
##  2           1002 Murphy          Diane            Firrelli  Jeff     
##  3           1056 Patterson       Mary             Patterson William  
##  4           1056 Patterson       Mary             Bondur    Gerard   
##  5           1056 Patterson       Mary             Bow       Anthony  
##  6           1056 Patterson       Mary             Nishi     Mami     
##  7           1088 Patterson       William          Fixter    Andy     
##  8           1088 Patterson       William          Marsh     Peter    
##  9           1088 Patterson       William          King      Tom      
## 10           1102 Bondur          Gerard           Bondur    Loui     
## # ... with 12 more rows
…
